<?xml version="1.0" encoding="UTF-8"?>
<svg id="Warstwa_2" data-name="Warstwa 2" xmlns="http://www.w3.org/2000/svg" viewBox="0 0 99.84 99.84">
  <defs>
    <style>
      .cls-1 {
        fill: #fff;
      }
    </style>
  </defs>
  <g id="Warstwa_1-2" data-name="Warstwa 1">
    <path class="cls-1" d="M85.22,14.62C76.19,5.59,63.71,0,49.92,0S23.66,5.59,14.62,14.62C5.03,24.22-.68,37.69.07,52.5c1.28,25.38,21.9,46,47.27,47.28,14.81.75,28.29-4.96,37.88-14.56,9.04-9.04,14.62-21.51,14.62-35.3s-5.59-26.27-14.62-35.3ZM82.24,82.24c-2.35,2.35-4.97,4.45-7.79,6.24-.3.19-.7.2-1.01.02l-18.27-10.59c-.71-.41-1.6.1-1.6.92v15.74c0,.5-.39.93-.89.96-.92.06-1.84.09-2.77.09-7.53,0-14.63-1.83-20.89-5.05-.3-.15-.49-.45-.52-.78l-1.65-19.96c-.08-.96-1.3-1.33-1.9-.57l-8.18,10.45c-.37.47-1.09.5-1.49.04-4.95-5.74-8.49-12.72-10.11-20.41-.07-.33.04-.67.28-.9l13.77-13.28c.65-.62.28-1.72-.62-1.82l-12.65-1.42c-.56-.06-.95-.59-.84-1.14,1.49-7.37,4.75-14.1,9.33-19.72.21-.26.54-.39.86-.35l15.91,1.85c.84.1,1.45-.77,1.08-1.53l-4.86-9.88c-.23-.46-.06-1.02.39-1.27,4.41-2.44,9.26-4.17,14.4-5.05.29-.05.59.04.81.23l12.97,11.42c.69.61,1.77.12,1.77-.8V6.06c0-.6.55-1.07,1.14-.95,7.29,1.46,13.96,4.64,19.55,9.12.25.2.38.51.36.82l-1.44,21.25c-.06.85.86,1.42,1.6.99l11.23-6.61c.49-.29,1.13-.09,1.37.42,2.59,5.74,4.04,12.1,4.04,18.81,0,1.14-.05,2.27-.14,3.38-.03.35-.25.66-.58.81l-18.9,8.3c-.79.35-.86,1.44-.12,1.89l12.91,7.74c.45.27.61.87.34,1.32-1.94,3.24-4.26,6.23-6.91,8.88Z"/>
  </g>
</svg>